[
    {
        "id": 1,
        "tienda_name": "Tortas el Jimmy",
        "foto": "/../../tiendas/0.jpg",
        "owner_id": 2
    },
    {
        "id": 2,
        "tienda_name": "Veysa Manualidades",
        "foto": "/../../tiendas/1.jpg",
        "owner_id": 6
    },
    {
        "id": 3,
        "tienda_name": "Bakery Bakeshop",
        "foto": "/../../tiendas/2.jpg",
        "owner_id": 3
    }
]